{
  "elasticsearch": {
      "host": "192.168.0.251",
      "port": 9200,
      "index": "boc_vsf_1",
      "indices": [
          "boc_vsf_1"
      ],
      "apiVersion": "7.1"
  },
  "magento2": {
      "imgUrl": "https://bestonlinecabinets-magento.devsite.cc/media/catalog/product",
      "assetPath": "/../var/magento2-sample-data/pub/media",
      "api": {
          "url": "https://bestonlinecabinets-magento.devsite.cc/rest",
          "consumerKey": "rlcz9uza1i8dpc785gs9jx3tz6eutgxe",
          "consumerSecret": "3t8g0f2mmls1md6zkhmzl62geksx0iza",
          "accessToken": "66tjbrsho2mxib4vjyqhs4nnlaktxce2",
          "accessTokenSecret": "x2arcggfah3lnyqml3hw7n3gjih3f0al"
      }
  },
  "imageable": {
      "whitelist": {
          "allowedHosts": [
              ".*bestonlinecabinets.local",
              ".*bestonlinecabinets-magento.devsite.cc"
          ]
      }
  },
  "entities": {
    "attribute": {
      "loadByAttributeMetadata": true
    }
  }
}